id	m1	m2	m3	m4	m5	m6	m7	m8	m9	m10
1	5.791785727	2.521426794	3.498656461	2.941662343	2.961892576	3.361934708	4.14311855	4.035732831	2.073039468	3.962355597
2	5.714432715	4.185138111	4.442094884	2.132364405	5.400196458	4.550948976	4.712357038	2.086133531	3.133969047	4.463878474
3	2.561339513	3.878254837	4.599617096	3.644436663	3.751165753	4.203698683	4.012827854	3.465226382	4.626749414	3.014864161
4	5.401103309	4.610425022	5.98101848	2.306107841	5.593861825	5.36362378	4.364150566	4.318992834	4.170104055	2.370416829
5	4.946475089	3.712870749	2.800747719	2.161162546	2.098419048	5.003177335	5.89602192	2.891450858	3.299538283	5.205950788
6	5.391965906	5.395415002	5.384739118	2.244477383	5.959984126	3.46015233	3.375093151	3.745518126	3.158876963	5.75164326
7	2.746926891	5.759025153	4.464837392	2.027384847	3.327070528	3.938685939	2.270501589	3.667540887	2.501253083	4.312888232
8	3.744207292	5.030285988	2.522491842	3.942935957	2.486588219	4.301936225	4.673350894	2.560838004	5.180795666	4.059674343
9	5.648021383	2.673270552	5.052705585	2.092035638	5.198059964	3.362704733	5.3297066	4.496429452	3.600130083	4.497072292
10	2.660612053	2.822802027	4.910611304	5.648707381	3.502132214	2.139478188	4.033045286	2.6450043	3.894047912	2.886945676
